﻿capital = 286 #Phnom Penh NOT on the map as VP!

oob = "CAM_1936"

set_research_slots = 3

# Starting tech
# clone of France
set_technology = {
	infantry_weapons = 1
	infantry_weapons1 = 1
	tech_support = 1
	tech_recon = 1
	tech_mountaineers = 1
	motorised_infantry = 1
	gw_artillery = 1
	interwar_antiair = 1
	gwtank = 1
	basic_light_tank = 1
	improved_light_tank = 1
	early_fighter = 1
	naval_bomber1 = 1
	cv_early_fighter = 1
	cv_naval_bomber1 = 1
	early_bomber = 1
	tactical_bomber1 = 1
	CAS1 = 1
	
	trench_warfare = 1
	fleet_in_being = 1
}

if = {
	limit = {
		not = { has_dlc = "Man the Guns" }
	}
	set_technology = {
		early_submarine = 1
		basic_submarine = 1
		early_destroyer = 1
		early_light_cruiser = 1
		basic_light_cruiser = 1
		early_heavy_cruiser = 1
		basic_heavy_cruiser = 1
		early_battleship = 1
		early_battlecruiser = 1
		early_carrier = 1
		transport = 1
	}
}
if = {
	limit = {
		has_dlc = "Man the Guns"
	}
	set_technology = {
		early_ship_hull_submarine = 1
		basic_ship_hull_submarine = 1
		early_ship_hull_light = 1
		early_ship_hull_cruiser = 1
		basic_ship_hull_cruiser = 1
		early_ship_hull_heavy = 1
		early_ship_hull_carrier = 1
		mtg_transport = 1
		basic_battery = 1
		basic_torpedo = 1
	}
}

set_politics = {

	parties = {
		democratic = { 
			popularity = 40
		}

#		fascism = {
#		
#		}
		
		communism = {
			popularity = 25
		}
		neutrality = {
			popularity = 35
		}
	}

	ruling_party = democratic
	last_election = "1933.2.16"
	election_frequency = 36
	elections_allowed = yes
}

create_country_leader = {
	name = "Pol Pot" 
	desc = ""
	picture = "gfx/leaders/Asia/Portrait_Asia_Generic_warlord1.dds"
	expire = "1953.3.1"
	ideology = anarchist_communism #insanity
	traits = {
		
	}
}

#non standard english alphabet character
create_country_leader = {
	name = "Sisowath Youtévong"
	desc = ""
	picture = "gfx/leaders/Asia/Portrait_Asia_Generic_land_4.dds"
	expire = "1953.3.1"
	ideology = liberalism
	traits = {
		
	}
}

create_country_leader = {
	name = "Norodom Sihanouk" 
	desc = ""
	picture = "gfx/leaders/Asia/Portrait_Asia_Generic_2.dds"
	expire = "1953.3.1"
	ideology = conservatism
	traits = {
		
	}
}

#couldnt find anything historical on fascism

