
state={
	id=130
	name="STATE_130"
	manpower = 4762495
		resources={
		aluminium=100
		oil=100
		rubber=100
		steel=100
		tungsten=100
		chromium=100
	}
	state_category = metropolis

	history={
		owner = ENG
		victory_points = {
			9379 15
		}
		victory_points = {
			11297 10
		}
		victory_points = {
			9315 3
		}
		buildings = {
			infrastructure = 7
			arms_factory = 2
			industrial_complex = 3
			air_base = 10
			11297 = {
				naval_base = 5
			}
		}
		add_core_of = ENG
		1939.1.1 = {
			buildings = {
				arms_factory = 3
				industrial_complex = 4
			}
		}
	}

	provinces={
		6268 9269 9315 9332 9379 9397 11297 11317 11382
	}
}
