
state={
	id=131
	name="STATE_131"
	manpower = 21288600

	state_category = large_city
	resources={
		aluminium=100
		oil=100
		rubber=100
		steel=100
		tungsten=100
		chromium=100
	}

	history={
		owner = ENG
		victory_points = {
			351 10
		}
		buildings = {
			infrastructure = 6
			industrial_complex = 1
			dockyard = 4
			air_base = 6
			351 = {
				naval_base = 6
			}
			3311 = {
				naval_base = 1
			}
		}
		add_core_of = ENG
		1939.1.1 = {
			buildings = {
				dockyard = 5
				industrial_complex = 2
			}
		}
	}

	provinces={
		219 351 3311 6399 9285 11270 11299 11332
	}
}
