
state={
	id=39
	name="STATE_39" # South Tyrol
	manpower = 641650

	state_category = town

	resources={
		aluminium=40
	}

	history={
		victory_points = {
			11598 1
		}
		owner = AUS
		buildings = {
			infrastructure = 6
			industrial_complex = 1
		}
		add_core_of = AUS
	}

	provinces={
		656 6631 6675 9598 9630 11598 11615
	}
}
