state=
{
	id=69
	name="STATE_69"
	manpower = 2830000

	state_category = large_town

	resources={
		steel=40 # was: 8
	}

	history={
		victory_points = {
			3585 3
		}
		#victory_points = {
		#	11432 1
		#}
		victory_points = {
			11401 3
		}
		owner = CZE
		buildings = {
			infrastructure = 8
			industrial_complex = 2
			anti_air_building = 1
			424 =
			{
				bunker = 1
			}
			469 =
			{
				bunker = 1
			}
			3585 =
			{
				bunker = 1
			}
			5283 =
			{
				bunker = 1
			}
			6470 =
			{
				bunker = 1
			}
			9555 =
			{
				bunker = 1
			}
			11432 =
			{
				bunker = 1
			}

		}
		add_core_of = CZE
		add_core_of = AUS

	}
	provinces=
	{
424 469 543 557 3418 3585 5283 6470 7857 9555 11401 11414 11432 11525 	}
}
